# Blender v2.75 (sub 0) OBJ File: ''
# www.blender.org
mtllib thoughtBubble.mtl
o Curve.001_Mesh.002
v -1.474292 -0.122700 -1.476473
v -1.640160 -0.122700 -1.537737
v -1.814833 -0.122700 -1.573387
v -1.992428 -0.122700 -1.584597
v -2.167063 -0.122700 -1.572537
v -2.332853 -0.122700 -1.538380
v -2.483916 -0.122700 -1.483299
v -2.614369 -0.122700 -1.408464
v -2.718328 -0.122700 -1.315049
v -2.789910 -0.122700 -1.204225
v -2.823233 -0.122700 -1.077165
v -2.812413 -0.122700 -0.935040
v -2.751566 -0.122700 -0.779022
v -2.948973 -0.122700 -0.753390
v -3.116744 -0.122700 -0.704165
v -3.254051 -0.122700 -0.635627
v -3.360069 -0.122700 -0.552054
v -3.433968 -0.122700 -0.457727
v -3.474921 -0.122700 -0.356922
v -3.482102 -0.122700 -0.253920
v -3.454682 -0.122700 -0.152999
v -3.391833 -0.122700 -0.058438
v -3.292729 -0.122700 0.025483
v -3.156542 -0.122700 0.094487
v -2.982444 -0.122700 0.144294
v -3.155516 -0.122700 0.229181
v -3.279868 -0.122700 0.314681
v -3.359948 -0.122700 0.399284
v -3.400203 -0.122700 0.481482
v -3.405082 -0.122700 0.559768
v -3.379032 -0.122700 0.632633
v -3.326502 -0.122700 0.698569
v -3.251939 -0.122700 0.756068
v -3.159792 -0.122700 0.803622
v -3.054507 -0.122700 0.839722
v -2.940534 -0.122700 0.862860
v -2.822320 -0.122700 0.871529
v -2.918952 -0.122700 0.977662
v -2.978364 -0.122700 1.076509
v -3.004865 -0.122700 1.167298
v -3.002764 -0.122700 1.249257
v -2.976373 -0.122700 1.321616
v -2.930000 -0.122700 1.383603
v -2.867957 -0.122700 1.434447
v -2.794552 -0.122700 1.473376
v -2.714095 -0.122700 1.499618
v -2.630898 -0.122700 1.512404
v -2.549270 -0.122700 1.510961
v -2.473520 -0.122700 1.494518
v -2.507200 -0.122700 1.625250
v -2.504426 -0.122700 1.754598
v -2.467741 -0.122700 1.878284
v -2.399687 -0.122700 1.992028
v -2.302809 -0.122700 2.091553
v -2.179648 -0.122700 2.172579
v -2.032747 -0.122700 2.230827
v -1.864651 -0.122700 2.262018
v -1.677900 -0.122700 2.261874
v -1.475039 -0.122700 2.226115
v -1.258610 -0.122700 2.150463
v -1.031155 -0.122700 2.030638
v -0.974337 -0.122700 2.230015
v -0.845757 -0.122700 2.404603
v -0.657958 -0.122700 2.551069
v -0.423481 -0.122700 2.666083
v -0.154869 -0.122700 2.746315
v 0.135335 -0.122700 2.788432
v 0.434591 -0.122700 2.789105
v 0.730356 -0.122700 2.745003
v 1.010087 -0.122700 2.652794
v 1.261244 -0.122700 2.509147
v 1.471282 -0.122700 2.310732
v 1.627662 -0.122700 2.054216
v 1.890834 -0.122700 2.132468
v 2.139758 -0.122700 2.161788
v 2.370683 -0.122700 2.148631
v 2.579859 -0.122700 2.099445
v 2.763538 -0.122700 2.020682
v 2.917969 -0.122700 1.918792
v 3.039403 -0.122700 1.800225
v 3.124090 -0.122700 1.671433
v 3.168281 -0.122700 1.538866
v 3.168225 -0.122700 1.408976
v 3.120173 -0.122700 1.288212
v 3.020375 -0.122700 1.183024
v 3.244402 -0.122700 1.145650
v 3.412119 -0.122700 1.088385
v 3.529435 -0.122700 1.015331
v 3.602259 -0.122700 0.930592
v 3.636500 -0.122700 0.838268
v 3.638067 -0.122700 0.742463
v 3.612868 -0.122700 0.647278
v 3.566814 -0.122700 0.556816
v 3.505812 -0.122700 0.475179
v 3.435773 -0.122700 0.406469
v 3.362604 -0.122700 0.354789
v 3.292215 -0.122700 0.324241
v 3.514498 -0.122700 0.202451
v 3.669908 -0.122700 0.077882
v 3.765840 -0.122700 -0.046610
v 3.809690 -0.122700 -0.168167
v 3.808854 -0.122700 -0.283933
v 3.770728 -0.122700 -0.391050
v 3.702708 -0.122700 -0.486662
v 3.612189 -0.122700 -0.567912
v 3.506569 -0.122700 -0.631943
v 3.393242 -0.122700 -0.675898
v 3.279605 -0.122700 -0.696920
v 3.173053 -0.122700 -0.692151
v 3.233819 -0.122700 -0.787283
v 3.257322 -0.122700 -0.888025
v 3.246482 -0.122700 -0.991042
v 3.204223 -0.122700 -1.092999
v 3.133466 -0.122700 -1.190561
v 3.037133 -0.122700 -1.280392
v 2.918147 -0.122700 -1.359158
v 2.779430 -0.122700 -1.423522
v 2.623904 -0.122700 -1.470151
v 2.454492 -0.122700 -1.495708
v 2.274114 -0.122700 -1.496858
v 2.085693 -0.122700 -1.470268
v 2.054414 -0.122700 -1.551026
v 2.002826 -0.122700 -1.628405
v 1.933792 -0.122700 -1.700786
v 1.850172 -0.122700 -1.766549
v 1.754829 -0.122700 -1.824072
v 1.650625 -0.122700 -1.871736
v 1.540421 -0.122700 -1.907921
v 1.427080 -0.122700 -1.931006
v 1.313463 -0.122700 -1.939372
v 1.202432 -0.122700 -1.931397
v 1.096848 -0.122700 -1.905462
v 0.999575 -0.122700 -1.859946
v 0.902586 -0.122700 -1.989813
v 0.786794 -0.122700 -2.085806
v 0.657079 -0.122700 -2.151488
v 0.518327 -0.122700 -2.190424
v 0.375420 -0.122700 -2.206178
v 0.233241 -0.122700 -2.202312
v 0.096674 -0.122700 -2.182390
v -0.029398 -0.122700 -2.149976
v -0.140093 -0.122700 -2.108634
v -0.230526 -0.122700 -2.061927
v -0.295814 -0.122700 -2.013419
v -0.331075 -0.122700 -1.966674
v -0.450403 -0.122700 -2.009785
v -0.579106 -0.122700 -2.035849
v -0.713059 -0.122700 -2.045401
v -0.848136 -0.122700 -2.038974
v -0.980213 -0.122700 -2.017104
v -1.105167 -0.122700 -1.980325
v -1.218871 -0.122700 -1.929170
v -1.317201 -0.122700 -1.864175
v -1.396033 -0.122700 -1.785873
v -1.451242 -0.122700 -1.694799
v -1.478703 -0.122700 -1.591488
vn 0.000000 -1.000000 0.000000
usemtl SVGMat.001
s off
f 137//1 136//1 135//1 134//1 133//1 132//1 131//1 130//1 129//1 128//1 127//1 126//1 125//1 124//1 123//1 122//1 121//1 120//1 119//1 118//1 117//1 116//1 115//1 114//1 113//1 112//1 111//1 110//1 109//1 108//1 107//1 106//1 105//1 104//1 103//1 102//1 101//1 100//1 99//1 98//1 97//1 96//1 95//1 94//1 93//1 92//1 91//1 90//1 89//1 88//1 87//1 86//1 85//1 84//1 83//1 82//1 81//1 80//1 79//1 78//1 77//1 76//1 75//1 74//1 73//1 72//1 71//1 70//1 69//1 68//1 67//1 66//1 65//1 64//1 63//1 62//1 61//1 60//1 59//1 58//1 57//1 56//1 55//1 54//1 53//1 52//1 51//1 50//1 49//1 48//1 47//1 46//1 45//1 44//1 43//1 42//1 41//1 40//1 39//1 38//1 37//1 36//1 35//1 34//1 33//1 32//1 31//1 30//1 29//1 28//1 27//1 26//1 25//1 24//1 23//1 22//1 21//1 20//1 19//1 18//1 17//1 16//1 15//1 14//1 13//1 12//1 11//1 10//1 9//1 8//1 7//1 6//1 5//1 4//1 3//1 2//1 1//1 156//1 155//1 154//1 153//1 152//1 151//1 150//1 149//1 148//1 147//1 146//1 145//1 144//1 143//1 142//1 141//1 140//1 139//1 138//1
o Curve_Mesh.001
v -1.436169 -0.125055 -1.438294
v -1.597748 -0.125055 -1.497974
v -1.767905 -0.125055 -1.532702
v -1.940908 -0.125055 -1.543622
v -2.111027 -0.125055 -1.531874
v -2.272530 -0.125055 -1.498601
v -2.419687 -0.125055 -1.444943
v -2.546766 -0.125055 -1.372044
v -2.648037 -0.125055 -1.281045
v -2.717769 -0.125055 -1.173087
v -2.750230 -0.125055 -1.049312
v -2.739689 -0.125055 -0.910862
v -2.680416 -0.125055 -0.758878
v -2.872718 -0.125055 -0.733908
v -3.036151 -0.125055 -0.685956
v -3.169908 -0.125055 -0.619191
v -3.273184 -0.125055 -0.537779
v -3.345172 -0.125055 -0.445891
v -3.385067 -0.125055 -0.347693
v -3.392061 -0.125055 -0.247354
v -3.365350 -0.125055 -0.149043
v -3.304127 -0.125055 -0.056927
v -3.207586 -0.125055 0.024824
v -3.074920 -0.125055 0.092043
v -2.905324 -0.125055 0.140563
v -3.073920 -0.125055 0.223255
v -3.195057 -0.125055 0.306544
v -3.273066 -0.125055 0.388959
v -3.312281 -0.125055 0.469032
v -3.317034 -0.125055 0.545294
v -3.291657 -0.125055 0.616274
v -3.240485 -0.125055 0.680505
v -3.167850 -0.125055 0.736517
v -3.078086 -0.125055 0.782842
v -2.975524 -0.125055 0.818008
v -2.864497 -0.125055 0.840548
v -2.749340 -0.125055 0.848993
v -2.843474 -0.125055 0.952382
v -2.901349 -0.125055 1.048673
v -2.927165 -0.125055 1.137114
v -2.925119 -0.125055 1.216954
v -2.899410 -0.125055 1.287442
v -2.854236 -0.125055 1.347826
v -2.793797 -0.125055 1.397355
v -2.722290 -0.125055 1.435277
v -2.643914 -0.125055 1.460841
v -2.562868 -0.125055 1.473296
v -2.483350 -0.125055 1.471891
v -2.409560 -0.125055 1.455873
v -2.442369 -0.125055 1.583224
v -2.439666 -0.125055 1.709227
v -2.403930 -0.125055 1.829715
v -2.337636 -0.125055 1.940518
v -2.243263 -0.125055 2.037470
v -2.123286 -0.125055 2.116400
v -1.980184 -0.125055 2.173142
v -1.816434 -0.125055 2.203527
v -1.634513 -0.125055 2.203386
v -1.436897 -0.125055 2.168552
v -1.226064 -0.125055 2.094856
v -1.004492 -0.125055 1.978129
v -0.949142 -0.125055 2.172351
v -0.823887 -0.125055 2.342424
v -0.640944 -0.125055 2.485103
v -0.412531 -0.125055 2.597143
v -0.150865 -0.125055 2.675300
v 0.131836 -0.125055 2.716329
v 0.423353 -0.125055 2.716985
v 0.711470 -0.125055 2.674022
v 0.983968 -0.125055 2.584198
v 1.228630 -0.125055 2.444265
v 1.433238 -0.125055 2.250981
v 1.585574 -0.125055 2.001098
v 1.841941 -0.125055 2.077326
v 2.084428 -0.125055 2.105889
v 2.309381 -0.125055 2.093071
v 2.513149 -0.125055 2.045158
v 2.692079 -0.125055 1.968431
v 2.842516 -0.125055 1.869175
v 2.960810 -0.125055 1.753675
v 3.043308 -0.125055 1.628213
v 3.086355 -0.125055 1.499074
v 3.086301 -0.125055 1.372542
v 3.039491 -0.125055 1.254901
v 2.942274 -0.125055 1.152433
v 3.160508 -0.125055 1.116025
v 3.323889 -0.125055 1.060241
v 3.438171 -0.125055 0.989077
v 3.509112 -0.125055 0.906528
v 3.542467 -0.125055 0.816592
v 3.543993 -0.125055 0.723265
v 3.519446 -0.125055 0.630541
v 3.474583 -0.125055 0.542418
v 3.415159 -0.125055 0.462892
v 3.346931 -0.125055 0.395958
v 3.275654 -0.125055 0.345615
v 3.207084 -0.125055 0.315857
v 3.423620 -0.125055 0.197216
v 3.575011 -0.125055 0.075868
v 3.668462 -0.125055 -0.045404
v 3.711178 -0.125055 -0.163818
v 3.710364 -0.125055 -0.276591
v 3.673224 -0.125055 -0.380938
v 3.606963 -0.125055 -0.474078
v 3.518785 -0.125055 -0.553227
v 3.415896 -0.125055 -0.615602
v 3.305500 -0.125055 -0.658421
v 3.194801 -0.125055 -0.678899
v 3.091004 -0.125055 -0.674253
v 3.150199 -0.125055 -0.766925
v 3.173094 -0.125055 -0.865062
v 3.162534 -0.125055 -0.965415
v 3.121368 -0.125055 -1.064736
v 3.052441 -0.125055 -1.159775
v 2.958599 -0.125055 -1.247283
v 2.842690 -0.125055 -1.324013
v 2.707560 -0.125055 -1.386713
v 2.556055 -0.125055 -1.432136
v 2.391023 -0.125055 -1.457032
v 2.215310 -0.125055 -1.458153
v 2.031761 -0.125055 -1.432249
v 2.001291 -0.125055 -1.510919
v 1.951037 -0.125055 -1.586298
v 1.883788 -0.125055 -1.656807
v 1.802330 -0.125055 -1.720869
v 1.709453 -0.125055 -1.776905
v 1.607943 -0.125055 -1.823337
v 1.500589 -0.125055 -1.858586
v 1.390178 -0.125055 -1.881074
v 1.279499 -0.125055 -1.889223
v 1.171339 -0.125055 -1.881455
v 1.068486 -0.125055 -1.856190
v 0.973728 -0.125055 -1.811852
v 0.879247 -0.125055 -1.938360
v 0.766449 -0.125055 -2.031871
v 0.640088 -0.125055 -2.095855
v 0.504924 -0.125055 -2.133784
v 0.365713 -0.125055 -2.149130
v 0.227210 -0.125055 -2.145364
v 0.094175 -0.125055 -2.125958
v -0.028638 -0.125055 -2.094382
v -0.136470 -0.125055 -2.054109
v -0.224565 -0.125055 -2.008610
v -0.288165 -0.125055 -1.961356
v -0.322514 -0.125055 -1.915819
v -0.438757 -0.125055 -1.957816
v -0.564132 -0.125055 -1.983206
v -0.694620 -0.125055 -1.992510
v -0.826205 -0.125055 -1.986250
v -0.954867 -0.125055 -1.964946
v -1.076589 -0.125055 -1.929117
v -1.187353 -0.125055 -1.879286
v -1.283141 -0.125055 -1.815971
v -1.359934 -0.125055 -1.739694
v -1.413716 -0.125055 -1.650975
v -1.440467 -0.125055 -1.550335
v -1.344981 0.125055 -1.346971
v -1.496300 0.125055 -1.402861
v -1.655653 0.125055 -1.435385
v -1.817671 0.125055 -1.445611
v -1.976988 0.125055 -1.434609
v -2.128237 0.125055 -1.403448
v -2.266050 0.125055 -1.353198
v -2.385061 0.125055 -1.284927
v -2.479902 0.125055 -1.199706
v -2.545206 0.125055 -1.098602
v -2.575606 0.125055 -0.982686
v -2.565735 0.125055 -0.853027
v -2.510225 0.125055 -0.710694
v -2.690317 0.125055 -0.687310
v -2.843373 0.125055 -0.642402
v -2.968637 0.125055 -0.579875
v -3.065355 0.125055 -0.503633
v -3.132773 0.125055 -0.417579
v -3.170134 0.125055 -0.325616
v -3.176685 0.125055 -0.231648
v -3.151670 0.125055 -0.139580
v -3.094334 0.125055 -0.053313
v -3.003922 0.125055 0.023248
v -2.879680 0.125055 0.086199
v -2.720853 0.125055 0.131638
v -2.878744 0.125055 0.209080
v -2.992189 0.125055 0.287080
v -3.065245 0.125055 0.364262
v -3.101970 0.125055 0.439251
v -3.106421 0.125055 0.510670
v -3.082656 0.125055 0.577144
v -3.034733 0.125055 0.637297
v -2.966710 0.125055 0.689753
v -2.882645 0.125055 0.733136
v -2.786595 0.125055 0.766069
v -2.682618 0.125055 0.787178
v -2.574772 0.125055 0.795087
v -2.662930 0.125055 0.891911
v -2.717130 0.125055 0.982088
v -2.741307 0.125055 1.064914
v -2.739390 0.125055 1.139685
v -2.715314 0.125055 1.205697
v -2.673008 0.125055 1.262247
v -2.616407 0.125055 1.308631
v -2.549440 0.125055 1.344145
v -2.476041 0.125055 1.368086
v -2.400141 0.125055 1.379750
v -2.325672 0.125055 1.378434
v -2.256567 0.125055 1.363433
v -2.287292 0.125055 1.482698
v -2.284761 0.125055 1.600701
v -2.251294 0.125055 1.713539
v -2.189209 0.125055 1.817306
v -2.100828 0.125055 1.908102
v -1.988470 0.125055 1.982021
v -1.854454 0.125055 2.035161
v -1.701101 0.125055 2.063616
v -1.530731 0.125055 2.063484
v -1.345662 0.125055 2.030862
v -1.148216 0.125055 1.961845
v -0.940712 0.125055 1.852530
v -0.888877 0.125055 2.034419
v -0.771575 0.125055 2.193694
v -0.600248 0.125055 2.327314
v -0.386337 0.125055 2.432240
v -0.141285 0.125055 2.505434
v 0.123465 0.125055 2.543858
v 0.396473 0.125055 2.544472
v 0.666296 0.125055 2.504237
v 0.921492 0.125055 2.420116
v 1.150619 0.125055 2.289068
v 1.342235 0.125055 2.108056
v 1.484899 0.125055 1.874040
v 1.724988 0.125055 1.945428
v 1.952078 0.125055 1.972177
v 2.162749 0.125055 1.960173
v 2.353579 0.125055 1.915302
v 2.521147 0.125055 1.843447
v 2.662033 0.125055 1.750493
v 2.772816 0.125055 1.642326
v 2.850075 0.125055 1.524831
v 2.890389 0.125055 1.403891
v 2.890339 0.125055 1.285394
v 2.846501 0.125055 1.175222
v 2.755457 0.125055 1.079260
v 2.959834 0.125055 1.045164
v 3.112841 0.125055 0.992922
v 3.219867 0.125055 0.926276
v 3.286303 0.125055 0.848969
v 3.317540 0.125055 0.764743
v 3.318970 0.125055 0.677341
v 3.295982 0.125055 0.590505
v 3.253967 0.125055 0.507977
v 3.198316 0.125055 0.433501
v 3.134420 0.125055 0.370817
v 3.067669 0.125055 0.323670
v 3.003453 0.125055 0.295802
v 3.206240 0.125055 0.184694
v 3.348019 0.125055 0.071051
v 3.435536 0.125055 -0.042522
v 3.475540 0.125055 -0.153417
v 3.474777 0.125055 -0.259029
v 3.439996 0.125055 -0.356751
v 3.377942 0.125055 -0.443977
v 3.295362 0.125055 -0.518101
v 3.199006 0.125055 -0.576515
v 3.095619 0.125055 -0.616615
v 2.991950 0.125055 -0.635793
v 2.894742 0.125055 -0.631442
v 2.950180 0.125055 -0.718230
v 2.971621 0.125055 -0.810135
v 2.961732 0.125055 -0.904117
v 2.923179 0.125055 -0.997131
v 2.858628 0.125055 -1.086136
v 2.770745 0.125055 -1.168088
v 2.662195 0.125055 -1.239945
v 2.535645 0.125055 -1.298665
v 2.393760 0.125055 -1.341203
v 2.239207 0.125055 -1.364519
v 2.074651 0.125055 -1.365568
v 1.902756 0.125055 -1.341310
v 1.874221 0.125055 -1.414984
v 1.827157 0.125055 -1.485577
v 1.764178 0.125055 -1.551609
v 1.687892 0.125055 -1.611604
v 1.600912 0.125055 -1.664082
v 1.505848 0.125055 -1.707565
v 1.405310 0.125055 -1.740576
v 1.301910 0.125055 -1.761637
v 1.198259 0.125055 -1.769269
v 1.096966 0.125055 -1.761993
v 1.000644 0.125055 -1.738333
v 0.911902 0.125055 -1.696810
v 0.823420 0.125055 -1.815286
v 0.717784 0.125055 -1.902859
v 0.599447 0.125055 -1.962780
v 0.472865 0.125055 -1.998301
v 0.342492 0.125055 -2.012673
v 0.212784 0.125055 -2.009146
v 0.088195 0.125055 -1.990972
v -0.026820 0.125055 -1.961401
v -0.127805 0.125055 -1.923685
v -0.210306 0.125055 -1.881075
v -0.269868 0.125055 -1.836821
v -0.302036 0.125055 -1.794176
v -0.410898 0.125055 -1.833506
v -0.528312 0.125055 -1.857283
v -0.650516 0.125055 -1.865997
v -0.773745 0.125055 -1.860135
v -0.894238 0.125055 -1.840183
v -1.008232 0.125055 -1.806630
v -1.111963 0.125055 -1.759962
v -1.201669 0.125055 -1.700667
v -1.273587 0.125055 -1.629233
v -1.323953 0.125055 -1.546147
v -1.349005 0.125055 -1.451897
vn -0.615700 0.486400 -0.619900
vn -0.768400 0.443000 -0.461800
vn 0.285800 0.466500 0.837100
vn -0.748200 0.631500 0.203300
vn -0.943100 0.330600 0.036200
vn 0.253300 0.471500 -0.844700
vn -0.513400 0.586400 0.626500
vn -0.422200 0.529300 -0.735900
vn -0.358200 0.487800 -0.796100
vn -0.181300 0.439300 -0.879900
vn 0.120900 0.572400 0.811000
vn 0.440900 0.521000 -0.730800
vn 0.584800 0.636700 0.502600
vn -0.767300 0.639500 -0.047800
vn -0.422600 0.281000 -0.861700
vn -0.262800 0.358600 -0.895700
vn 0.006000 0.350100 -0.936700
vn 0.708900 0.657300 0.255700
vn -0.154100 0.535500 0.830300
vn 0.436300 0.419100 0.796300
vn -0.776500 0.596400 -0.203600
vn 0.708900 0.641200 -0.293800
vn 0.271400 0.493300 -0.826400
vn 0.696500 0.673400 -0.247900
vn 0.610500 0.536900 -0.582300
vn -0.267100 0.348800 0.898300
vn -0.846500 0.532100 0.018200
vn -0.682500 0.606200 0.408300
vn 0.000700 0.488000 0.872900
vn 0.206700 0.225500 0.952100
vn 0.797000 0.514000 -0.317100
vn 0.063800 0.441500 -0.895000
vn -0.267600 0.230800 0.935500
vn 0.620500 0.463600 -0.632500
vn -0.063400 0.391100 -0.918200
vn 0.438200 0.559200 0.703700
vn 0.049600 0.491200 0.869700
vn -0.044300 0.134700 -0.989900
vn -0.065200 0.414200 -0.907800
vn -0.811500 0.491200 0.316500
vn 0.175700 0.474000 -0.862800
vn 0.192000 0.279800 -0.940700
vn -0.640200 0.472100 -0.606000
vn 0.724200 0.427800 -0.540900
vn -0.187600 0.333500 0.923900
vn -0.238700 0.551800 0.799100
vn 0.795300 0.522200 -0.308000
vn -0.413800 0.432200 -0.801200
vn 0.328600 0.417400 -0.847200
vn 0.152200 0.380500 0.912200
vn -0.633300 0.594000 -0.496100
vn -0.137500 0.424300 0.895000
vn 0.312200 0.394700 -0.864100
vn 0.456700 0.561500 -0.690000
vn 0.679600 0.529500 -0.507800
vn -0.545200 0.405300 -0.733800
vn 0.546900 0.574100 -0.609300
vn -0.693300 0.347800 -0.631200
vn -0.811300 0.534500 -0.236800
vn -0.514500 0.538600 0.667200
vn 0.306400 0.370800 0.876700
vn 0.629600 0.657500 0.414000
vn -0.866100 0.447300 -0.223100
vn 0.095900 0.483600 -0.870000
vn 0.787200 0.616700 -0.000300
vn 0.408000 0.569900 0.713300
vn 0.534200 0.377800 -0.756300
vn -0.221200 0.459100 -0.860400
vn 0.191800 0.545800 0.815600
vn -0.440700 0.597500 0.669900
vn -0.124000 0.268400 -0.955300
vn -0.105900 0.424600 0.899100
vn 0.396200 0.480600 -0.782300
vn 0.784900 0.592000 0.183100
vn -0.399500 0.447200 -0.800300
vn -0.549800 0.568600 -0.611900
vn -0.629800 0.617600 0.471200
vn -0.393600 0.542400 0.742200
vn -0.570700 0.469000 0.674000
vn -0.247700 0.479900 -0.841600
vn -0.371300 0.537900 0.756900
vn -0.879800 0.413800 -0.233900
vn 0.727700 0.685800 -0.005300
vn -0.755100 0.653500 -0.052600
vn 0.359500 0.519900 -0.774900
vn 0.729500 0.519600 0.444700
vn -0.721200 0.643000 0.257800
vn -0.480300 0.491400 -0.726600
vn 0.691600 0.675200 0.256500
vn 0.631400 0.632200 -0.449200
vn -0.674900 0.595400 -0.435900
vn -0.779100 0.582800 0.231100
vn 0.540400 0.503400 0.674200
vn -0.001900 0.567600 0.823300
vn 0.702200 0.536400 -0.468200
vn -0.312900 0.447700 -0.837700
vn -0.222000 0.365700 -0.903900
vn 0.338700 0.211300 -0.916900
vn 0.431400 0.621600 0.653900
vn 0.632100 0.624800 -0.458400
vn 0.523900 0.530800 -0.666200
vn -0.296700 0.403800 0.865400
vn 0.256300 0.574200 0.777600
vn -0.526900 0.367700 -0.766300
vn 0.016600 0.340800 0.940000
vn 0.173400 0.302200 -0.937300
vn 0.065600 0.448800 -0.891200
vn -0.757400 0.464300 -0.459100
vn -0.302200 0.572400 0.762200
vn -0.270500 0.489100 0.829200
vn 0.386200 0.243100 -0.889800
vn -0.734800 0.575000 -0.359800
vn -0.134300 0.276700 -0.951500
vn -0.118900 0.561000 0.819300
vn -0.714100 0.462100 0.525900
vn 0.732400 0.494600 0.467800
vn -0.042300 0.456900 -0.888500
vn 0.571700 0.553900 0.605200
vn -0.568100 0.609500 0.553000
vn -0.423400 0.350000 0.835600
vn 0.358100 0.508600 -0.783000
vn 0.135700 0.415100 -0.899600
vn -0.826100 0.560000 0.062900
vn -0.070700 0.257100 0.963800
vn -0.299500 0.485300 -0.821400
vn 0.565900 0.462300 -0.682700
vn 0.767500 0.636000 -0.080800
vn 0.059300 0.338800 -0.939000
vn -0.525800 0.527900 -0.667000
vn -0.685300 0.568200 0.455500
vn 0.447800 0.503800 -0.738700
vn -0.144200 0.469500 -0.871100
vn 0.722000 0.586200 -0.367600
vn 0.156600 0.431900 0.888200
vn -0.404400 0.471700 0.783600
vn 0.686700 0.322300 -0.651500
vn -0.713100 0.638400 -0.289700
vn -0.732300 0.626400 0.267100
vn -0.799600 0.600100 0.020500
vn 0.236100 0.486100 -0.841400
vn 0.718000 0.653600 0.239300
vn 0.746500 0.635300 -0.197600
vn -0.127500 0.468700 -0.874100
vn -0.625400 0.600500 0.498200
vn 0.180000 0.421700 -0.888700
vn 0.639600 0.590000 0.492800
vn -0.751600 0.337300 -0.566900
vn 0.318500 0.588900 0.742800
vn 0.547200 0.596800 -0.586800
vn 0.443200 0.309500 0.841300
vn 0.742200 0.670000 0.012100
vn -0.898100 0.357600 0.255900
vn -0.527900 0.512900 0.676900
vn 0.000000 1.000000 -0.000000
vn -0.023900 0.477100 -0.878500
vn 0.534000 0.644800 0.546900
vn -0.404600 0.297700 -0.864700
usemtl SVGMat.001
s off
f 309//2 310//2 466//2 465//2
f 194//3 195//3 351//3 350//3
f 242//4 243//4 399//4 398//4
f 176//5 177//5 333//5 332//5
f 312//6 157//6 313//6 468//6
f 273//7 274//7 430//7 429//7
f 199//8 200//8 356//8 355//8
f 163//9 164//9 320//9 319//9
f 307//10 308//10 464//10 463//10
f 161//11 162//11 318//11 317//11
f 224//12 225//12 381//12 380//12
f 281//13 282//13 438//13 437//13
f 244//14 245//14 401//14 400//14
f 185//15 186//15 342//15 341//15
f 181//16 182//16 338//16 337//16
f 170//17 171//17 327//17 326//17
f 275//18 276//18 432//18 431//18
f 256//19 257//19 413//19 412//19
f 212//20 213//20 369//20 368//20
f 253//21 254//21 410//21 409//21
f 166//22 167//22 323//22 322//22
f 268//23 269//23 425//23 424//23
f 283//24 284//24 440//24 439//24
f 258//25 259//25 415//25 414//25
f 279//26 280//26 436//26 435//26
f 229//27 230//27 386//27 385//27
f 206//28 207//28 363//28 362//28
f 208//29 209//29 365//29 364//29
f 213//30 214//30 370//30 369//30
f 204//31 205//31 361//31 360//31
f 239//32 240//32 396//32 395//32
f 303//33 304//33 460//33 459//33
f 180//34 181//34 337//34 336//34
f 250//35 251//35 407//35 406//35
f 160//36 161//36 317//36 316//36
f 243//37 244//37 400//37 399//37
f 231//38 232//38 388//38 387//38
f 264//39 265//39 421//39 420//39
f 286//40 287//40 443//40 442//40
f 168//41 169//41 325//41 324//41
f 284//42 285//42 441//42 440//42
f 158//43 159//43 315//43 314//43
f 183//44 184//44 340//44 339//44
f 289//45 290//45 446//45 445//45
f 191//46 192//46 348//46 347//46
f 221//47 222//47 378//47 377//47
f 277//48 278//48 434//48 433//48
f 298//49 299//49 455//49 454//49
f 262//50 263//50 419//50 418//50
f 241//51 242//51 398//51 397//51
f 173//52 174//52 330//52 329//52
f 202//53 203//53 359//53 358//53
f 301//54 302//54 458//54 457//54
f 271//55 272//55 428//55 427//55
f 249//56 250//56 406//56 405//56
f 299//57 300//57 456//57 455//57
f 260//58 261//58 417//58 416//58
f 193//59 194//59 350//59 349//59
f 195//60 196//60 352//60 351//60
f 188//61 189//61 345//61 344//61
f 215//62 216//62 372//62 371//62
f 236//63 237//63 393//63 392//63
f 205//64 206//64 362//64 361//64
f 293//65 294//65 450//65 449//65
f 238//66 239//66 395//66 394//66
f 226//67 227//67 383//67 382//67
f 251//68 252//68 408//68 407//68
f 296//69 297//69 453//69 452//69
f 232//70 233//70 389//70 388//70
f 210//71 211//71 367//71 366//71
f 169//72 170//72 326//72 325//72
f 230//73 231//73 387//73 386//73
f 291//74 292//74 448//74 447//74
f 266//75 267//75 423//75 422//75
f 171//76 172//76 328//76 327//76
f 164//77 165//77 321//77 320//77
f 198//78 199//78 355//78 354//78
f 200//79 201//79 357//79 356//79
f 178//80 179//80 335//80 334//80
f 306//81 307//81 463//81 462//81
f 220//82 221//82 377//82 376//82
f 311//83 312//83 468//83 467//83
f 257//84 258//84 414//84 413//84
f 175//85 176//85 332//85 331//85
f 272//86 273//86 429//86 428//86
f 228//87 229//87 385//87 384//87
f 186//88 187//88 343//88 342//88
f 308//89 309//89 465//89 464//89
f 245//90 246//90 402//90 401//90
f 259//91 260//91 416//91 415//91
f 165//92 166//92 322//92 321//92
f 207//93 208//93 364//93 363//93
f 254//94 255//94 411//94 410//94
f 223//95 224//95 380//95 379//95
f 278//96 279//96 435//96 434//96
f 297//97 298//97 454//97 453//97
f 287//98 288//98 444//98 443//98
f 157//99 158//99 314//99 313//99
f 234//100 235//100 391//100 390//100
f 269//101 270//101 426//101 425//101
f 280//102 281//102 437//102 436//102
f 190//103 191//103 347//103 346//103
f 225//104 226//104 382//104 381//104
f 182//105 183//105 339//105 338//105
f 203//106 204//106 360//106 359//106
f 263//107 264//107 420//107 419//107
f 285//108 286//108 442//108 441//108
f 310//109 311//109 467//109 466//109
f 211//110 212//110 368//110 367//110
f 201//111 202//111 358//111 357//111
f 252//112 253//112 409//112 408//112
f 184//113 185//113 341//113 340//113
f 276//114 277//114 433//114 432//114
f 222//115 223//115 379//115 378//115
f 218//116 219//116 375//116 374//116
f 265//117 266//117 422//117 421//117
f 304//118 305//118 461//118 460//118
f 227//119 228//119 384//119 383//119
f 209//120 210//120 366//120 365//120
f 179//121 180//121 336//121 335//121
f 282//122 283//122 439//122 438//122
f 274//123 275//123 431//123 430//123
f 167//124 168//124 324//124 323//124
f 192//125 193//125 349//125 348//125
f 162//126 163//126 319//126 318//126
f 290//127 291//127 447//127 446//127
f 267//128 268//128 424//128 423//128
f 159//129 160//129 316//129 315//129
f 172//130 173//130 329//130 328//130
f 177//131 178//131 334//131 333//131
f 261//132 262//132 418//132 417//132
f 305//133 306//133 462//133 461//133
f 248//134 249//134 405//134 404//134
f 214//135 215//135 371//135 370//135
f 189//136 190//136 346//136 345//136
f 240//137 241//137 397//137 396//137
f 174//138 175//138 331//138 330//138
f 197//139 198//139 354//139 353//139
f 196//140 197//140 353//140 352//140
f 292//141 293//141 449//141 448//141
f 237//142 238//142 394//142 393//142
f 247//143 248//143 404//143 403//143
f 295//144 296//144 452//144 451//144
f 187//145 188//145 344//145 343//145
f 302//146 303//146 459//146 458//146
f 255//147 256//147 412//147 411//147
f 300//148 301//148 457//148 456//148
f 233//149 234//149 390//149 389//149
f 270//150 271//150 427//150 426//150
f 216//151 217//151 373//151 372//151
f 246//152 247//152 403//152 402//152
f 217//153 218//153 374//153 373//153
f 219//154 220//154 376//154 375//154
f 449//155 450//155 451//155 452//155 453//155 454//155 455//155 456//155 457//155 458//155 459//155 460//155 461//155 462//155 463//155 464//155 465//155 466//155 467//155 468//155 313//155 314//155 315//155 316//155 317//155 318//155 319//155 320//155 321//155 322//155 323//155 324//155 325//155 326//155 327//155 328//155 329//155 330//155 331//155 332//155 333//155 334//155 335//155 336//155 337//155 338//155 339//155 340//155 341//155 342//155 343//155 344//155 345//155 346//155 347//155 348//155 349//155 350//155 351//155 352//155 353//155 354//155 355//155 356//155 357//155 358//155 359//155 360//155 361//155 362//155 363//155 364//155 365//155 366//155 367//155 368//155 369//155 370//155 371//155 372//155 373//155 374//155 375//155 376//155 377//155 378//155 379//155 380//155 381//155 382//155 383//155 384//155 385//155 386//155 387//155 388//155 389//155 390//155 391//155 392//155 393//155 394//155 395//155 396//155 397//155 398//155 399//155 400//155 401//155 402//155 403//155 404//155 405//155 406//155 407//155 408//155 409//155 410//155 411//155 412//155 413//155 414//155 415//155 416//155 417//155 418//155 419//155 420//155 421//155 422//155 423//155 424//155 425//155 426//155 427//155 428//155 429//155 430//155 431//155 432//155 433//155 434//155 435//155 436//155 437//155 438//155 439//155 440//155 441//155 442//155 443//155 444//155 445//155 446//155 447//155 448//155
f 294//156 295//156 451//156 450//156
f 235//157 236//157 392//157 391//157
f 288//158 289//158 445//158 444//158
